{0: [np.array([  52.23252201,  107.87571207,   33.19627136]), np.array([  55.14670185,  108.7182058 ,   34.4474934 ])], 1: [np.array([  34.30107527,  160.00327256,  215.72650771]), np.array([  44.70186335,  173.48012422,  220.37204969])]}


def get_closest_box(box_to_embedding, test_vector):
    for box in box_to_embedding:
        box_to_embedding[box] = np.vstack(box_to_embedding[box])

    min_index = None
    min_distance = 100000000000
    for box in box_to_embedding.keys():
        distances = np.linalg.norm(box_to_embedding[box] - test_vector)
        #pdb.set_trace()
        if np.min(distances)< min_distance:
            min_distance = np.min(distances)
            min_index = box

    return min_index





{0: [array([  54.44646465,  107.23333333,   27.98939394]), array([  72.04797259,  123.55225585,   41.85722444])], 1: [array([  22.84566104,   57.16016308,  194.34420501]), array([  18.14264706,   49.40490196,  188.9495098 ])], 2: [array([  18.46622889,  106.62570356,  211.28611632]), array([  18.2271442 ,  106.97455231,  211.96512724])], 3: [array([ 132.92141623,   69.91968912,   75.6701209 ]), array([ 137.58974359,   70.99240266,   77.19278253])], 4: [array([  65.24837209,  178.85395349,  161.84744186]), array([  54.80785653,  170.73697694,  154.22544833])], 5: [array([ 105.19617928,  199.70609846,  236.76487877]), array([  45.77566735,  174.99537988,  227.8788501 ])], 6: [array([ 142.49884881,  107.00844206,  188.06676899]), array([ 135.95212766,   99.71884498,  184.87613982])], 7: [array([ 196.08206687,  167.63829787,  212.63576494]), array([ 228.92650919,  198.13713911,  241.89632546])]}

